c:\users\geoff\sigil\examples\sprites\vc2013\debug\vc120.pdb
c:\users\geoff\sigil\examples\sprites\vc2013\debug\vc120.idb
c:\users\geoff\sigil\examples\sprites\vc2013\debug\sprites.obj
c:\users\geoff\sigil\examples\sprites\vc2013\debug\sprites-vc2013.ilk
c:\users\geoff\sigil\examples\sprites\vc2013\debug\sprites-vc2013.exe
c:\users\geoff\sigil\examples\sprites\vc2013\debug\sprites-vc2013.pdb
c:\users\geoff\sigil\examples\sprites\vc2013\debug\sprites-vc2013.tlog\cl.command.1.tlog
c:\users\geoff\sigil\examples\sprites\vc2013\debug\sprites-vc2013.tlog\cl.read.1.tlog
c:\users\geoff\sigil\examples\sprites\vc2013\debug\sprites-vc2013.tlog\cl.write.1.tlog
c:\users\geoff\sigil\examples\sprites\vc2013\debug\sprites-vc2013.tlog\link.command.1.tlog
c:\users\geoff\sigil\examples\sprites\vc2013\debug\sprites-vc2013.tlog\link.read.1.tlog
c:\users\geoff\sigil\examples\sprites\vc2013\debug\sprites-vc2013.tlog\link.write.1.tlog
